{
  "project_info": {
    "project_number": "601566308368",
    "project_id": "saluddeporte-d6bad",
    "storage_bucket": "saluddeporte-d6bad.appspot.com"
  },
  "client": [
    {
      "client_info": {
        "mobilesdk_app_id": "1:601566308368:android:ec4f5a338660034437c295",
        "android_client_info": {
          "package_name": "com.example.navigation"
        }
      },
      "oauth_client": [
        {
          "client_id": "601566308368-s2qq8g2e1edd8svlcr336eu62jbfmktl.apps.googleusercontent.com",
          "client_type": 3
        }
      ],
      "api_key": [
        {
          "current_key": "AIzaSyDQj_UR5O124-1n0ycaEvhnM63H-eA31eg"
        }
      ],
      "services": {
        "appinvite_service": {
          "other_platform_oauth_client": [
            {
              "client_id": "601566308368-s2qq8g2e1edd8svlcr336eu62jbfmktl.apps.googleusercontent.com",
              "client_type": 3
            }
          ]
        }
      }
    }
  ],
  "configuration_version": "1"
}